<?xml version="1.0" standalone="no"?>
<!DOCTYPE svg PUBLIC "-//W3C//DTD SVG 1.1//EN" "http://www.w3.org/Graphics/SVG/1.1/DTD/svg11.dtd" >
<svg xmlns="http://www.w3.org/2000/svg">
<metadata>Generated by IcoMoon</metadata>
<defs>
<font id="icons" horiz-adv-x="1024">
<font-face units-per-em="1024" ascent="960" descent="-64" />
<missing-glyph horiz-adv-x="1024" />
<glyph unicode="&#x20;" horiz-adv-x="512" d="" />
<glyph unicode="&#xe900;" glyph-name="phone" horiz-adv-x="569" d="M359.538 114.062c0-0.051 0-0.111 0-0.171 0-18.269-14.745-33.094-32.984-33.222h-84.208c-18.443 0-33.394 14.951-33.394 33.394s14.951 33.394 33.394 33.394h84.196c18.251-0.129 32.996-14.954 32.996-33.222 0-0.060 0-0.121 0-0.181zM568.889 20.594c0.003-0.271 0.005-0.592 0.005-0.913 0-45.999-37.113-83.329-83.029-83.681h-402.807c-45.949 0.352-83.063 37.682-83.063 83.681 0 0.321 0.002 0.641 0.005 0.961v854.764c-0.003 0.271-0.005 0.592-0.005 0.913 0 45.999 37.113 83.329 83.029 83.681h402.807c45.949-0.352 83.063-37.682 83.063-83.681 0-0.321-0.002-0.641-0.005-0.961v-854.764zM87.609 870.969v-589.938h393.671v589.938h-393.671zM481.28 25.088v189.156h-393.671v-189.212h393.671z" />
<glyph unicode="&#xe901;" glyph-name="reg" horiz-adv-x="887" d="M877.909 868.045l-78.507 81.92c-6.065 6.195-14.514 10.035-23.86 10.035-0.012 0-0.024 0-0.035 0h0.002c-9.127-0.156-17.327-3.996-23.201-10.093l-458.762-478.286c-2.881-3.211-5.197-6.998-6.747-11.158l-51.279-134.387c-1.453-3.65-2.296-7.88-2.296-12.307 0-9.33 3.743-17.785 9.81-23.947 5.777-6.058 13.915-9.827 22.934-9.827 0.096 0 0.191 0 0.287 0.001 0.083-0.001 0.199-0.002 0.314-0.002 4.083 0 7.96 0.881 11.451 2.462l129.532 52.631c4.322 1.746 7.976 4.348 10.898 7.618l459.459 477.895c5.725 6.224 9.234 14.563 9.234 23.723s-3.509 17.499-9.257 23.748zM376.832 395.298l-52.565-21.436 21.163 55.364 430.080 448.922 32.768-34.133zM712.021 435.644v-454.656c-0.46-24.922-20.754-44.953-45.735-44.988h-622.595c-24.228 0.459-43.693 20.207-43.693 44.502 0 0.171 0.001 0.341 0.003 0.511v857.199c0 0.064-0.001 0.139-0.001 0.214 0 23.64 19.164 42.803 42.803 42.803 0.312 0 0.624-0.003 0.934-0.010l455.292 0.001c24.118-0.969 43.303-20.755 43.303-45.022s-19.185-44.053-43.215-45.019l-411.736-0.003v-765.133h537.259v409.6c0 24.13 19.561 43.691 43.691 43.691s43.691-19.561 43.691-43.691z" />
<glyph unicode="&#xe902;" glyph-name="question" horiz-adv-x="1252" d="M1196.544 775.623h-529.977v130.503c-3.855 27.5-24.911 49.134-51.788 53.819l-573.534 0.055c-23.832-5.68-41.28-26.79-41.28-51.976 0-0.687 0.013-1.372 0.039-2.053l-0.003-362.625c-0.014-0.444-0.022-0.966-0.022-1.49 0-24.64 17.621-45.164 40.949-49.659l82.92-0.051 108.715-123.108c7.049-7.622 17.101-12.378 28.263-12.378 0.924 0 1.841 0.033 2.749 0.097 4.316 0.43 8.355 1.812 11.899 3.934 14.21 6.827 23.932 21.243 23.932 37.93 0 1.081-0.041 2.152-0.121 3.212l0.009 90.085h81.863v-263.339c1.926-33.376 28.028-60.087 60.96-62.958l374.353-0.018v-172.715c-0.048-0.861-0.075-1.868-0.075-2.881 0-22.063 12.975-41.095 31.71-49.883 6.024-2.765 12.677-4.295 19.688-4.295 0.017 0 0.034 0 0.051 0 1.093-0.085 2.369-0.134 3.657-0.134 13.771 0 26.247 5.548 35.313 14.53l203.203 215.264h86.756c30.97 3.511 54.814 29.563 54.814 61.184 0 0.67-0.011 1.338-0.032 2.003l0.002 477.314c0.027 0.722 0.043 1.571 0.043 2.423 0 33.083-23.436 60.693-54.611 67.133zM263.566 577.024c-2.022 0.371-4.35 0.583-6.727 0.583-19.885 0-36.302-14.851-38.764-34.067l-0.020-29.151-46.592 52.736c-5.958 6.312-14.382 10.242-23.724 10.242-1.665 0-3.302-0.125-4.9-0.366l-60.577 0.022v297.643h489.7v-99.271h-129.195c-33.954-6.065-59.635-34.629-61.207-69.472l-0.006-129.127h-117.476zM1142.841 279.097h-56.263c-1.147 0.099-2.481 0.155-3.829 0.155-13.276 0-25.276-5.459-33.88-14.255l-123.742-130.853v94.436c-1.675 28.367-25.090 50.738-53.729 50.738-1.713 0-3.408-0.080-5.081-0.237l-376.504 0.016v383.033h652.971v-383.033zM568.263 534.471c-0.004 0.204-0.006 0.446-0.006 0.687 0 22.906 18.394 41.516 41.217 41.865h260.129c23.564 0 42.667-19.103 42.667-42.667s-19.103-42.667-42.667-42.667h-260.096c-22.858 0.347-41.254 18.958-41.254 41.866 0 0.322 0.004 0.642 0.011 0.962zM964.096 505.173c-7.507 7.874-12.125 18.558-12.125 30.322s4.619 22.448 12.142 30.339c7.495 7.333 17.787 11.869 29.139 11.869s21.644-4.536 29.163-11.894c7.499-7.866 12.118-18.551 12.118-30.315s-4.619-22.448-12.142-30.339c-7.326-7.691-17.651-12.502-29.101-12.555-11.484 0.129-21.808 4.944-29.181 12.616z" />
<glyph unicode="&#xe903;" glyph-name="profile" d="M512 315.904c6.946-0.532 15.043-0.835 23.211-0.835 178.333 0 322.901 144.568 322.901 322.901s-144.568 322.901-322.901 322.901c-178.328 0-322.892-144.559-322.901-322.884-0.112-3.122-0.176-6.789-0.176-10.471 0-168.014 132.871-304.994 299.267-311.593zM512 864.7c4.924 0.38 10.663 0.596 16.452 0.596 125.587 0 227.396-101.809 227.396-227.396s-101.809-227.396-227.396-227.396c-125.587 0-227.396 101.809-227.396 227.396 0 0.007 0 0.013 0 0.020-0.071 2.084-0.111 4.535-0.111 6.995 0 118.293 93.498 214.749 210.625 219.499zM650.581 284.433c-4.037 1.409-8.69 2.222-13.534 2.222-11.133 0-21.262-4.298-28.818-11.325l-96.23-87.63-96.256 87.654c-7.53 7.003-17.659 11.302-28.792 11.302-4.843 0-9.497-0.814-13.831-2.311-62.508-21.21-373.121-135.625-373.121-300.694-0.023-0.538-0.035-1.169-0.035-1.803 0-24.848 19.696-45.095 44.328-45.981l935.334-0.002c24.712 0.888 44.409 21.136 44.409 45.984 0 0.634-0.013 1.265-0.038 1.893 0.003 164.91-310.61 279.394-373.416 300.42zM112.64 31.3c74.028 66.318 162.007 118.815 258.81 152.451l111.878-94.834c7.477-7.025 17.571-11.34 28.672-11.34s21.195 4.316 28.694 11.361l106.474 96.44c102.185-35.263 190.164-87.76 264.92-154.719l-799.448 0.641z" />
<glyph unicode="&#xe904;" glyph-name="search" horiz-adv-x="1026" d="M656.498 960c-0.56 0.003-1.223 0.005-1.887 0.005-201.953 0-365.842-162.974-367.321-364.578-0.001-0.267-0.001-0.416-0.001-0.565 0-84.894 29.367-162.929 78.497-224.5l-350.426-345.728c-9.463-9.297-15.327-22.23-15.327-36.532 0-14.581 6.095-27.738 15.876-37.063 9.645-9.313 22.766-15.039 37.225-15.039 0.12 0 0.24 0 0.36 0.001 14.811 0.054 28.249 5.967 38.111 15.544l350.422 347.009c59.879-44.384 135.216-71.047 216.782-71.047 202.275 0 366.251 163.976 366.251 366.251s-163.976 366.251-366.251 366.251c-0.812 0-1.624-0.003-2.435-0.008zM656.498 323.129c-149.425 1.161-270.108 122.561-270.108 272.149 0 150.308 121.849 272.156 272.156 272.156 150.305 0 272.152-121.844 272.156-272.148-1-150.522-123.253-272.157-273.914-272.157-0.102 0-0.204 0-0.306 0zM841.387 591.076c-3.018-20.002-20.086-35.158-40.695-35.158-0.093 0-0.186 0-0.28 0.001-0.117-0.002-0.272-0.002-0.427-0.002-1.85 0-3.671 0.125-5.455 0.367-20.238 2.477-35.919 19.733-35.919 40.651 0 1.705 0.104 3.385 0.306 5.035-0.202 42.025-26.212 78.127-63.059 93.14-15.002 6.575-24.818 20.659-24.818 37.036 0 6.072 1.349 11.828 3.764 16.987 6.736 14.035 21.074 23.722 37.674 23.722 6.093 0 11.881-1.305 17.1-3.65 4.856-2.17 128.305-57.124 111.807-178.127zM753.778 502.272c8.763-8.176 14.225-19.791 14.225-32.683s-5.462-24.507-14.199-32.658c-8.592-8.398-20.324-13.565-33.262-13.565-0.116 0-0.231 0-0.346 0.001-13.022 0.017-24.854 5.175-33.562 13.554-8.424 8.314-13.652 19.88-13.652 32.668s5.228 24.353 13.663 32.678c8.69 8.402 20.517 13.596 33.557 13.658 0.069 0 0.135 0 0.202 0 13.003 0 24.788-5.212 33.381-13.66z" />
<glyph unicode="&#xe905;" glyph-name="fb" horiz-adv-x="551" d="M343.061-64h-160.692c-22.122 0-40.055 17.933-40.055 40.055v424.114h-101.316c-22.122 0-40.055 17.933-40.055 40.055v154.095c0 22.122 17.933 40.055 40.055 40.055h104.144v50.422c0 154.566 102.259 276.145 232.32 276.145h134.774c22.122 0 40.055-17.933 40.055-40.055v-163.991c0-22.122-17.933-40.055-40.055-40.055h-125.349c-1.789-4.027-2.831-8.724-2.831-13.665 0-0.166 0.001-0.332 0.004-0.497v-67.833h128.177c0.047 0 0.102 0 0.157 0 22.122 0 40.055-17.933 40.055-40.055 0-2.498-0.229-4.944-0.666-7.315l-25.409-153.848c-3.277-19.104-19.716-33.458-39.508-33.458-0.027 0-0.053 0-0.080 0h-102.726v-424.114c0-0.003 0-0.007 0-0.011 0-22.122-17.933-40.055-40.055-40.055-0.331 0-0.662 0.004-0.991 0.012zM224.309 16.11h78.697v424.114c0 22.122 17.933 40.055 40.055 40.055h108.856l13.195 73.042h-121.108c-22.122 0-40.055 17.933-40.055 40.055v107.913c-0.292 2.666-0.459 5.757-0.459 8.888 0 43.3 31.913 79.147 73.502 85.303l94.718 0.057v83.88h-94.248c-85.294 0-152.21-86.237-152.21-196.035v-90.478c0-22.122-17.933-40.055-40.055-40.055h-104.144v-73.984h101.316c22.122 0 40.055-17.933 40.055-40.055v-424.114z" />
<glyph unicode="&#xe906;" glyph-name="vk" horiz-adv-x="1721" d="M1375.566-64.579c-43.819 2.083-83.739 17.199-116.398 41.522-37.741 29.588-71.223 62.886-100.432 99.725-23.974 33.462-52.51 60.152-85.413 80.443-8.2 0.717-34.263-28.242-34.263-115.12 0.029-0.902 0.045-1.963 0.045-3.027 0-54.48-42.739-98.979-96.518-101.795l-107.979-0.010c-170.041 9.694-320.527 86.166-426.979 203.36-213.021 224.659-398.939 663.681-400.677 667.736-4.103 9.075-6.494 19.675-6.494 30.834 0 15.451 4.583 29.831 12.464 41.855 16.885 22.693 43.941 37.425 74.439 37.425 1.256 0 2.507-0.025 3.751-0.075l231.495 0.006c0.624 0.014 1.36 0.023 2.097 0.023 42.445 0 78.504-27.34 91.529-65.369l3.678-9.368c27.609-68.917 55.402-126.079 86.63-181.034 75.542-131.726 112.031-161.265 122.456-166.478 12.4 41.55 19.536 89.293 19.536 138.704 0 23.594-1.627 46.809-4.776 69.537 0.498 0.71 0.612 4.615 0.612 8.547 0 29.742-6.517 57.962-18.2 83.309-9.976 10.039-24.259 17.66-40.294 19.583-23.365 4.43-40.55 24.425-40.55 48.433 0 10.247 3.131 19.763 8.488 27.643 12.75 17.906 29.479 32.411 48.935 42.334 46.002 17.311 98.281 27.125 152.852 27.125 11.906 0 23.704-0.467 35.375-1.384l34.366 0.097c4.522 0.164 9.835 0.257 15.17 0.257 38.843 0 76.528-4.953 112.46-14.262 88.985-21.326 86.089-98.937 81.456-206.666 0-31.276 0-66.606 0-108.887v-29.538c-1.011-8.366-1.587-18.054-1.587-27.877 0-26.451 4.182-51.925 11.921-75.797 49.948 49.165 91.68 105.147 122.524 167.476 31.526 55.673 61.303 117.839 86.668 182.226l6.937 17.501c8.295 15.912 20.070 28.985 34.379 38.57 13.111 7.522 28.371 11.819 44.635 11.819 0.118 0 0.235 0 0.353-0.001h275.095c4.728 0.814 10.174 1.28 15.729 1.28 36.808 0 68.842-20.438 85.374-50.584 12.996-35.257 7.784-98.388-133.538-290.099l-57.919-72.977c-30.836-32.758-56.191-71.11-74.324-113.299 19.728-37.487 46.477-66.637 78.117-89.42l0.84-0.575c63.522-60.078 120.625-125.635 170.996-196.321l2.76-9.289c11.171-15.505 17.866-34.882 17.866-55.823 0-14.405-3.168-28.071-8.846-40.338-22.445-32.124-58.627-54.112-100.074-57.295l-236.186-0.028zM1069.176 256.29c61.973 0 107.729-52.706 160.434-115.837 24.977-31.529 52.346-59.265 82.433-83.795 18.26-13.934 39.773-22.401 63.18-23.916l232.016-0.018 11.584 4.633-2.896 5.792c-47.896 67.921-99.493 127.422-156.419 181.356-146.495 136.617-136.649 174.264-12.704 335.856l57.919 73.557c42.568 52.577 80.077 112.152 110.103 175.945l-266.483 5.34c-30.355-77.764-61.68-142.78-97.228-205.073-115.333-196.302-169.777-213.099-209.741-213.099-0.069 0-0.15 0-0.232 0-15.982 0-30.906 4.527-43.561 12.368-63.935 42.076-61.619 125.479-57.564 192.085v28.38c0 43.439 0 79.928 0 112.941 2.046 15.825 3.214 34.129 3.214 52.706s-1.168 36.881-3.434 54.843l-7.309-2.138c-25.994 6.834-55.835 10.758-86.594 10.758-5.396 0-10.764-0.121-16.101-0.36l-34.572 0.027c-18.534 0-55.023 0-88.036-3.475l4.054-5.213c23.067-39.589 36.684-87.14 36.684-137.872 0-3.657-0.071-7.298-0.211-10.921 15.075-250.845-43.423-283.859-65.432-296.022-13.069-7.158-28.607-11.43-45.13-11.583-63.178 0-119.359 57.918-214.345 225.882-28.933 49.806-58.447 109.603-84.166 171.376l-7.346 18.596c-1.139 3.101-2.506 5.776-4.145 8.255l-215.366-0.147c42.281-94.407 198.661-431.493 368.941-611.041 88.553-99.249 213.681-164.236 354.032-173.67l105.842-0.086s0 0 0 6.371c0 161.014 71.24 201.557 101.937 211.403 8.007 3.066 17.274 5.134 26.931 5.776z" />
<glyph unicode="&#xe908;" glyph-name="Shape-19" horiz-adv-x="973" d="M865.792 750.080c-15.798 44.382-48.953 79.208-91.083 96.879-27.888 11.19-58.947 17.715-91.454 18.317-51.447 2.564-66.807 3.076-196.855 3.076s-145.408-0.512-196.608-3.072c-32.577-0.607-63.459-7.131-91.855-18.538-41.612-17.43-74.926-52.246-90.568-95.519-10.712-29.338-16.713-61.895-16.745-95.849-2.56-54.286-3.072-70.67-3.072-207.374s0.512-153.088 3.072-206.848c0.037-34.146 6.037-66.878 17.015-97.229 15.685-42.234 48.886-76.936 90.951-94.87 27.779-11.053 58.689-17.405 91.032-17.82 51.371-2.562 66.731-3.074 196.779-3.074s145.408 0.512 196.608 3.072c32.69 0.415 63.777 6.767 92.398 18.023 41.231 17.758 74.273 52.468 90.017 95.511 10.62 29.457 16.769 62.125 17.263 96.162 2.563 53.984 3.075 70.368 3.075 207.072s-0.512 153.088-3.072 207.36c-0.496 34.083-6.646 66.574-17.549 96.793zM486.4 184.832l0.356 0.008c138.494 3.86 249.579 117.342 249.579 256.769 0 2.247-0.029 4.488-0.080 6.391v0c0 0.001 0 0.003 0 0.004 0 145.542-117.985 263.526-263.526 263.526s-263.526-117.985-263.526-263.526c0-145.542 117.985-263.526 263.526-263.526 4.809 0 9.587 0.129 13.67 0.355zM746.496 659.968c-1.025-0.061-2.223-0.095-3.43-0.095-34.13 0-61.798 27.668-61.798 61.798s27.668 61.798 61.798 61.798c34.13 0 61.798-27.668 61.798-61.798 0-0.093 0-0.185-0.001-0.277 0.011-0.404 0.017-0.897 0.017-1.391 0-32.581-25.943-59.102-58.299-60.032l-0.086-0.002zM486.4 619.008c2.584 0.14 5.609 0.219 8.653 0.219 94.417 0 170.957-76.54 170.957-170.957s-76.54-170.957-170.957-170.957c-94.322 0-170.803 76.386-170.957 170.672-0.037 1.327-0.058 2.872-0.058 4.422 0 90.532 72.187 164.203 162.141 166.596zM970.24 237.056c-0.588-44.781-8.796-87.464-23.381-127.062-23.827-65.674-74.939-119.29-139.815-146.743-36.646-14.891-77.193-23.476-119.658-24.175-51.995-2.564-68.891-3.076-200.987-3.076s-148.48 0.512-200.704 3.072c-42.571 0.701-82.942 9.286-119.987 24.353-64.317 27.279-115.429 80.895-139.549 147.445-14.192 38.671-22.548 81.29-23.592 125.718-2.057 54.74-2.569 72.66-2.569 211.412s0.512 156.672 2.56 211.456c1.052 44.896 9.409 87.515 23.921 127.168 23.975 65.328 75.039 118.728 139.784 146.124 36.454 15.039 76.798 23.796 119.076 24.686 52.579 2.566 68.963 3.078 201.059 3.078s148.992-0.512 200.704-3.072c42.81-0.895 83.329-9.652 120.515-24.877 64.173-27.211 115.237-80.612 139.526-146.922 14.299-38.721 22.507-81.404 23.092-125.926 2.563-55.043 3.075-72.451 3.075-211.715s-0.512-156.672-3.072-210.944v0z" />
<glyph unicode="&#xe909;" glyph-name="arrow-right" horiz-adv-x="580" d="M21.504 57.515c-13.063-13.074-21.142-31.13-21.142-51.073 0-18.902 7.258-36.11 19.139-48.987 12.204-13.194 29.672-21.458 49.069-21.458 18.567 0 35.366 7.572 47.478 19.796l443.397 441.69c13.075 12.989 21.168 30.978 21.168 50.859s-8.093 37.87-21.165 50.855l-443.396 441.689c-12.078 12.185-28.821 19.729-47.326 19.729-19.498 0-37.040-8.375-49.225-21.725-11.877-12.821-19.135-29.975-19.135-48.824 0-19.887 8.079-37.886 21.134-50.896l392.194-390.829z" />
<glyph unicode="&#xe90a;" glyph-name="arrow-left" horiz-adv-x="581" d="M559.493 57.636c12.947-13.116 20.944-31.146 20.944-51.044 0-18.939-7.244-36.185-19.113-49.12-12.258-13.207-29.782-21.479-49.238-21.479-18.453 0-35.169 7.441-47.31 19.486l-444.173 441.781c-12.965 13.058-20.977 31.048-20.977 50.91s8.013 37.851 20.982 50.914l444.173 441.782c12.104 12.12 28.834 19.618 47.315 19.618 19.479 0 37.012-8.329 49.233-21.62 11.858-12.871 19.101-30.064 19.101-48.948 0-19.841-7.996-37.815-20.942-50.874l-392.921-390.871z" />
<glyph unicode="&#xe90b;" glyph-name="close" d="M997.899 87.326c16.051-16.069 25.978-38.258 25.978-62.766 0-49.052-39.764-88.816-88.816-88.816-0.083 0-0.165 0-0.248 0-24.431 0.022-46.55 9.955-62.546 25.997l-361.010 361.42-361.52-361.418c-15.869-15.109-37.394-24.404-61.090-24.404-48.967 0-88.662 39.695-88.662 88.662 0 23.81 9.386 45.429 24.659 61.357l360.978 361.387-361.008 361.418c-16.109 16.052-26.077 38.258-26.077 62.792 0 48.953 39.685 88.638 88.638 88.638 24.419 0 46.532-9.875 62.564-25.849l361.518-361.415 361.008 361.418c16.074 16.081 38.284 26.027 62.817 26.027 49.053 0 88.819-39.766 88.819-88.819 0-24.52-9.936-46.72-26.002-62.792l-361.52-361.418z" />
</font></defs></svg>